 __      __                         __                               __  __         ______   __        ______       
/  \    /  |                       /  |                             /  |/  |       /      \ /  |      /      |      
$$  \  /$$/______    ______    ____$$ |  ______   ______    _______ $$/ $$ |      /$$$$$$  |$$ |      $$$$$$/       
 $$  \/$$//      \  /      \  /    $$ | /      \ /      \  /       |/  |$$ |      $$ |  $$/ $$ |        $$ |        
  $$  $$//$$$$$$  |/$$$$$$  |/$$$$$$$ |/$$$$$$  |$$$$$$  |/$$$$$$$/ $$ |$$ |      $$ |      $$ |        $$ |        
   $$$$/ $$ |  $$ |$$ |  $$ |$$ |  $$ |$$ |  $$/ /    $$ |$$      \ $$ |$$ |      $$ |   __ $$ |        $$ |        
    $$ | $$ \__$$ |$$ \__$$ |$$ \__$$ |$$ |     /$$$$$$$ | $$$$$$  |$$ |$$ |      $$ \__/  |$$ |_____  _$$ |_       
    $$ | $$    $$ |$$    $$ |$$    $$ |$$ |     $$    $$ |/     $$/ $$ |$$ |      $$    $$/ $$       |/ $$   |      
    $$/   $$$$$$$ | $$$$$$$ | $$$$$$$/ $$/       $$$$$$$/ $$$$$$$/  $$/ $$/        $$$$$$/  $$$$$$$$/ $$$$$$/       
         /  \__$$ |/  \__$$ |                                                                                       
         $$    $$/ $$    $$/                                                                                        
          $$$$$$/   $$$$$$/                                                                                         

